GO:0032879
GO:0071704
GO:0003012
GO:0044237
GO:0007165
GO:0009725
GO:0003013
GO:0050877
GO:0065009
GO:0050789
GO:0006950
GO:0007049
GO:0042221
GO:0055114
GO:0048856
GO:0042592
GO:0044419
GO:0007623
GO:0042391
GO:0007268
GO:0006915
GO:0015979
GO:0022607
GO:0009628
GO:0006955
GO:0030154
