model,GO_0008150,GO_0009987,GO_0065007,GO_0050789,GO_0050896,GO_0050794,GO_0008152,GO_0007154,GO_0023052,GO_0051716,GO_0071704,GO_0044237,GO_0005575,GO_0007165,GO_0044238,GO_0003674,GO_0005623,GO_0044464,GO_0006807,GO_0032501,GO_0065008,GO_0005622,GO_0044424,GO_0042221,GO_0032991,GO_1901564,GO_0043170,GO_0051179,GO_0051234,GO_0006810,GO_0044281,GO_0010033,GO_0044260,GO_0009058,GO_0048583,GO_0003008,GO_0035556,GO_0003824,GO_0006950,GO_0070887,GO_0019222,GO_1901576,GO_0010646,GO_0023051,GO_0005737,GO_0007166,GO_0044444,GO_0034641,GO_0044249,GO_0043226,GO_0043229,GO_0007267,GO_0019538,GO_0006082,GO_0019752,GO_0043436,GO_0009719,GO_0071310,GO_1901360,GO_0032502,GO_0006796,GO_0006793,GO_0044267,GO_0005488,GO_0046483,GO_0006725,GO_0031323,GO_0007049,GO_0009966,GO_0060255,GO_0032879,GO_0009725,GO_1901700,GO_0005515,GO_0044422,GO_0044446,GO_0071495,GO_0016020,GO_0080090,GO_0071840,GO_0006811,GO_0005975,GO_0006139,GO_0043412,GO_0003013,GO_0010817,GO_0043227,GO_0071702,GO_0048856,GO_0051171,GO_0016043,GO_0051049,GO_0036211,GO_0006464,GO_0065009,GO_0044271,GO_1902494,GO_0048518,GO_0009628,GO_0042592,GO_0006812,GO_0008015,GO_0140096,GO_0033554,GO_0022402,GO_0046903,GO_0032940,GO_0044425,GO_0051239,GO_0002376,GO_0016310,GO_0022857,GO_0005215,GO_0009605,GO_0009914,GO_0051704,GO_0010467,GO_0009056,GO_0042391,GO_0046873,GO_0008324,GO_0015267,GO_0022803,GO_0015075,GO_0015318,GO_0022890,GO_0007167,GO_0016772,GO_0016740,GO_0043231,GO_0046879,GO_0023061,GO_1901566,GO_0016787,GO_0030001,GO_1901575,GO_0032787,GO_0005216,GO_0005261,GO_0016301,GO_0017144,GO_0042493,GO_0010468,GO_0006955,GO_0032870,GO_0043232,GO_0043228,GO_0006091,GO_1901698,GO_0001508,GO_0016773,GO_0071705,GO_0007275,GO_0098796,GO_0044419,GO_0048519,GO_0009059,GO_0050790,GO_0071944,GO_0006520,GO_0044283,GO_1902531,GO_1901362,GO_0019438,GO_0018130,GO_0044262,GO_0048869,GO_0006629,GO_0019637,GO_0006468,GO_1990234,GO_0055114,GO_0007623,GO_0048511,GO_0044403,GO_0051726,GO_0051246,GO_0034645,GO_0005886,GO_0034654,GO_1990904,GO_0003012,GO_0010243,GO_0022836,GO_0098772,GO_0007169,GO_0005102,GO_0004672,GO_0055085,GO_1901701,GO_0015833,GO_0002790,GO_0042886,GO_0044057,GO_0048523,GO_0032268,GO_0009889,GO_0044459,GO_0099537,GO_0007268,GO_0098916,GO_0099536,GO_1901605,GO_0006996,GO_0000278,GO_0090304,GO_0048878,GO_0043269,GO_0055086,GO_0022839,GO_0006952,GO_0061695,GO_0044770,GO_0030072,GO_0009653,GO_0003015,GO_0031326,GO_0043603,GO_0019932,GO_0098797,GO_0016053,GO_0046394,GO_1903047,GO_0008219,GO_0012501,GO_0050886,GO_0060089,GO_0007186,GO_0050776,GO_0002682,GO_0044248,GO_0030154,GO_0044255,GO_0046034,GO_1901135,GO_0072521,GO_0043434,GO_1901652,GO_0015077,GO_0005634,GO_0033036,GO_0015980,GO_0009888,GO_0070848,GO_0016491,GO_0086001,GO_0060047,GO_0010556,GO_2000112,GO_0006915,GO_0016051,GO_0038023,GO_0019220,GO_0051174,GO_0009755,GO_0019219,GO_0016070,GO_0048584,GO_0055080,GO_0098771,GO_0050801,GO_0055065,GO_0010959,GO_0006753,GO_0009117,GO_0023014,GO_0000165,GO_0008217,GO_0035637,GO_0015085,GO_0044428,GO_0034220,GO_1903530,GO_0051046,GO_0051641,GO_0048646,GO_0071363,GO_0048522,GO_0099177,GO_0050804,GO_0010564,GO_0044085,GO_0004888,GO_0042325,GO_0031224,GO_1901699,GO_0009416,GO_0009314,GO_0006816,GO_0070838,GO_0072511,GO_0097659,GO_0032774,GO_0080134,GO_0050778,GO_0002253,GO_0002684,GO_0006974,GO_0048871,GO_0006163,class
MODEL3883569319,0.6933612743506347,0,0.7305999556432364,0.820335356007638,0,0,0,0,0,0,0,0,0,0,0,0,0,0,0,0,0,0,0,0,0,0,0,0,0,0,0,0,0,0,0,0,0,0,0,0,0,0,0,0,0,0,0,0,0,0,0,0,0,0,0,0,0,0,0,0,0,0,0,0,0,0,0,0,0,0,0,0,0,0,0,0,0,0,0,0,0,0,0,0,0,0,0,0,0,0,0,0,0,0,0,0,0,0,0,0,0,0,0,0,0,0,0,0,0,0,0,0,0,0,0,0,0,0,0,0,0,0,0,0,0,0,0,0,0,0,0,0,0,0,0,0,0,0,0,0,0,0,0,0,0,0,0,0,0,0,0,0,0,0,0,0,0,0,0,0,0,0,0,0,0,0,0,0,0,0,0,0,0,0,0,0,0,0,0,0,0,0,0,0,0,0,0,0,0,0,0,0,0,0,0,0,0,0,0,0,0,0,0,0,0,0,0,0,0,0,0,0,0,0,0,0,0,0,0,0,0,0,0,0,0,0,0,0,0,0,0,0,0,0,0,0,0,0,0,0,0,0,0,0,0,0,0,0,0,0,0,0,0,0,0,0,0,0,0,0,0,0,0,0,0,0,0,0,0,0,0,0,0,0,0,0,0,0,0,0,0,0,0,0,0,0,0,0,0,0,0,0,0,0,0,0,0,0,0,0,9
MODEL1003290000,0.6729500963161781,0,0,0,0.7348672461377994,0,0,0,0,0,0,0,0,0,0,0,0,0,0,0,0,0,0,0,0,0,0,0,0,0,0,0,0,0,0,0,0,0,0.757858283255199,0,0,0,0,0,0,0,0,0,0,0,0,0,0,0,0,0,0,0,0,0,0,0,0,0,0,0,0,0,0,0,0,0,0,0,0,0,0,0,0,0,0,0,0,0,0,0,0,0,0,0,0,0,0,0,0,0,0,0,0,0,0,0,0,0,0,0,0,0,0,0.7348672461377994,0,0,0,0.7247796636776955,0,0.7598356856515925,0,0,0,0,0,0,0,0,0,0,0,0,0,0,0,0,0,0,0,0,0,0,0,0,0,0,0,0.8027415617602307,0,0,0,0,0,0,0,0,0,0,0.8572439828530728,0,0,0,0,0,0,0,0,0,0,0,0,0,0,0,0,0,0,0,1,0,0,0,0,0,0,0,0,0,0,0,0,0,0,0,0,0,0,0,0,0,0,0,0,0,0,0,0,0,0,0,0,0,0,0,0.8189373540396242,0,0,0,0,0,0,0,0,0,0,0,0,0,0,0,0,0,0,0,0,0,0,0,0,0,0,0,0,0,0,0,0,0,0,0,0,0,0,0,0,0,0,0,0,0,0,0,0,0,0,0,0,0,0,0,0,0,0,0,0,0,0,0,0,0,0,0,0,0,0,0,0,0,0,0,0,0,0,0,0,0,0,0,0,0,0,0,0,0,24
MODEL6622948601,0.6715486801956775,0.7247796636776955,0.677610913400481,0.6988271187715792,0.6988271187715792,0.7463018954975199,0,0.7463018954975199,0.7247796636776955,0.7463018954975199,0,0,0,0.7772031408854596,0,0,0,0,0,0,0,0,0,0,0,0,0,0,0,0,0,0,0,0,0,0,0.8326831776556043,0,0,0,0,0,0,0,0,0,0,0,0,0,0,0,0,0,0,0,0,0,0,0,0,0,0,0,0,0,0,0,0,0,0,0,0,0,0,0,0,0,0,0,0,0,0,0,0,0,0,0,0,0,0,0,0,0,0,0,0,0,0,0,0,0,0,0,0,0,0,0,0,0,0,0,0,0,0,0,0,0,0,0,0,0,0,0,0,0,0,0,0,0,0,0,0,0,0,0,0,0,0,0,0,0,0,0,0,0,0,0,0,0,0,0,0,0,0,0,0,0,0,0,0,0,0,0,0,0,0,0,0,0,0,0,0,0,0,0,0,0,0,0,0,0,0,0,0,0,0,0,0,0,0,0,0,0,0,0,0,0,0,0,0,0,0,0,0,0,0,0,0,0,0,0,0,0,0,0,0,0,0.8988509731955419,0,0,0,0,0,0,0,0,0,0,0,0,0,0,0,0,0,0,0,0,0,0,0,0,0,0,0,0,0,0,0,0,0,0,0,0,0,0,0,0,0,0,0,0,0,0,0,0,0,0,0,0,0,0,0,0,0,0,0,0,0,0,0,0,0,0,0,0,0,0,0,0,0,0,0,0,0,0,0,0,0,4
MODEL1302010019,0.6933612743506347,0.820335356007638,0,0,0,0,0.820335356007638,0,0,0,0,1,0,0,0,0,0,0,0,0,0,0,0,0,0,0,0,0,0,0,0,0,0,0,0,0,0,0,0,0,0,0,0,0,0,0,0,0,0,0,0,0,0,0,0,0,0,0,0,0,0,0,0,0,0,0,0,0,0,0,0,0,0,0,0,0,0,0,0,0,0,0,0,0,0,0,0,0,0,0,0,0,0,0,0,0,0,0,0,0,0,0,0,0,0,0,0,0,0,0,0,0,0,0,0,0,0,0,0,0,0,0,0,0,0,0,0,0,0,0,0,0,0,0,0,0,0,0,0,0,0,0,0,0,0,0,0,0,0,0,0,0,0,0,0,0,0,0,0,0,0,0,0,0,0,0,0,0,0,0,0,0,0,0,0,0,0,0,0,0,0,0,0,0,0,0,0,0,0,0,0,0,0,0,0,0,0,0,0,0,0,0,0,0,0,0,0,0,0,0,0,0,0,0,0,0,0,0,0,0,0,0,0,0,0,0,0,0,0,0,0,0,0,0,0,0,0,0,0,0,0,0,0,0,0,0,0,0,0,0,0,0,0,0,0,0,0,0,0,0,0,0,0,0,0,0,0,0,0,0,0,0,0,0,0,0,0,0,0,0,0,0,0,0,0,0,0,0,0,0,0,0,0,0,0,0,0,0,0,0,3
MODEL0847999575,0.6715486801956775,0,0.7247796636776955,0,0,0,0,0,0,0,0,0,0,0,0,0,0,0,0,0,0.7772031408854596,0,0,0,0,0,0,0,0,0,0,0,0,0,0,0,0,0,0,0,0,0,0,0,0,0,0,0,0,0,0,0,0,0,0,0,0,0,0,0,0,0,0,0,0,0,0,0,0,0,0,0,0,0,0,0,0,0,0,0,0,0,0,0,0,0,0,0,0,0,0,0,0,0,0,0,0,0,0,0,0,0,0,0,0,0,0,0,0,0,0,0,0,0,0,0,0,0,0.8326831776556043,0,0,0,0,0,0,0,0,0,0,0,0,0,0,0,0,0,0,0,0,0,0,0,0,0,0,0,0,0,0,0.8988509731955419,0,0,0,0,0,0,0,0,0,0,0,0,0,0,0,0,0,0,0,0,0,0,0,0,0,0,0,0,0,0,0,0,0,0,0,0,0,0,0,0,0,0,0,0,0,0,0,0,0,0,0,0,0,0,0,0,0,0,0,0,0,0,0,0,0,0,0,0,0,0,0,0,0,0,0,0,0,0,0,0,0,0,0,0,0,0,0,0,0,0,0,0,0,0,0,1,0,0,0,0,0,0,0,0,0,0,0,0,0,0,0,0,0,0,0,0,0,0,0,0,0,0,0,0,0,0,0,0,0,0,0,0,0,0,0,0,0,0,0,0,0,0,0,0,0,0,0,0,0,0,18
MODEL0912070000,0.6851754923600618,0.7348672461377994,0.6812920690579614,0.6933612743506347,0,0.7262114280571625,0.7230200263994838,0,0,0,0.741284495989096,0.741284495989096,0.677610913400481,0,0.7590745364185408,0.6715486801956775,0.7071067811865476,0.7598356856515925,0.741284495989096,0,0,0.7833810369372723,0.8572439828530728,0,0.668740304976422,0.7741685699586097,0.7741685699586097,0,0,0,0,0,0.7573065421245532,0,0,0,0,0.7247796636776955,0,0,0.7262114280571625,0,0,0,0.7806675962932174,0,0.8079330720145728,0,0,0.7219680097109132,0.76472449133173,0,0.7945974047018523,0,0,0,0,0,0,0,0,0,0.787492633537858,0,0,0,0.7573065421245532,0,0,0.7573065421245532,0,0,0,0,0,0,0,0,0.7573065421245532,0.7348672461377994,0,0,0,0,0,0,0.76472449133173,0,0,0.7573065421245532,0.8027415617602307,0,0,0,0,0,0.7348672461377994,0,0,0,0,0,0.7772031408854596,0,0,0,0,0,0,0,0,0,0,0,0,0,0,0.741284495989096,0,0,0,0,0,0,0,0,0,0,0,0.8079330720145728,0,0,0,0.7772031408854596,0,0.7741685699586097,0,0,0,0,0,0,0,0,0,0,0,0,0,0,0,0,0,0,0,0.7071067811865476,0,0,0,0,0,0,0,0,0,0,0,0,0,0,0,0,0,0,0,0,0.787492633537858,0,0,0,0,0,0,0,0,0,0,0,0,0,0,0,0,0,0.741284495989096,0.787492633537858,0,0,0,0,0,0,0,0,0,0,0,0,0,0,0,0,0,0,0,0,0,0,0,0,0,0,0,0,0,0,0,0,0,0,0.7741685699586097,0,0,0,0,0,0,0,0,0,0,0,0,0,0,0,0,0,0,0,0,0,0,0,0,0,0,0,0,0,0,0,0,0,0,0,0,0,0,0,0,0,0,0,0,0,0,0,0,0,0,0.8027415617602307,0,0,0,0,0,0,0,0,0,0,0,0,0,0,0,0,0,0,22
MODEL6615594069,0.668740304976422,0.6993157867655625,0,0,0,0,0.7348672461377994,0,0,0,0.8027415617602307,0.757858283255199,0,0,0.7247796636776955,0,0,0,0,0,0,0,0,0,0,0,0,0,0,0,0,0,0,0.7247796636776955,0,0,0,0,0,0,0,0.7772031408854596,0,0,0,0,0,0,0,0,0,0,0,0,0,0,0,0,0,0,0,0,0,0,0,0,0,0,0,0,0,0,0,0,0,0,0,0,0,0,0,0.7772031408854596,0,0,0,0,0,0,0,0,0,0,0,0,0,0,0,0,0,0,0,0,0,0,0,0,0,0,0,0,0,0,0,0,0,0,0,0,0,0,0,0,0,0,0,0,0,0,0,0,0,0,0,0,0,0,0,0,0,0,0,0,0,0,0,0,0,0,0,0,0,0,0,0,0,0,0,0,0,0,0,0,0,0,0,0,0,0,0,0,0,0,0,0,0,0,0,0,0,0,0,0,0,0,0,0,0,0,0,0,0,0,0,0,0,0,0,0,0,0,0,0,0,0,0,0,0,0,0,0,0,0,0,0,0,0,0,0,0,0,0,0,0,0,0,0,0,0,0,0,0,0,0,0,0,0,0,0,0,0,0,0,0,0,0,0,0,0,0,0,0.8326831776556043,0,0,0,0,0,0,0,0,0,0,0,0,0,0,0,0,0,0,0,0,0,0,0,0,0,0,0,0,0,0,0,0,0,0,0,0,0,0,0,0,0,0,0,0,0,0,0,0,0,21
MODEL1005260001,0,0,0,0,0,0,0,0,0,0,0,0,0,0,0,0.6715486801956775,0,0,0,0,0,0,0,0,0,0,0,0,0,0,0,0,0,0,0,0,0,0,0,0,0,0,0,0,0,0,0,0,0,0,0,0,0,0,0,0,0,0,0,0,0,0,0,0,0,0,0,0,0,0,0,0,0,0,0,0,0,0,0,0,0,0,0,0,0,0,0,0,0,0,0,0,0,0,0,0,0,0,0,0,0,0,0,0,0,0,0,0,0,0,0,0,0,0,0,0,0,0,0,0,0,0,0,0,0,0,0,0,0,0,0,0,0,0,0,0,0,0,0,0,0,0,0,0,0,0,0,0,0,0,0,0,0,0,0,0,0,0,0,0,0,0,0,0,0,0,0,0,0,0,0,0,0,0,0,0,0,0,0,0,0,0,0,0,0,0,0,0,0,0,0,0,0,0,0,0,0,0,0,0,0,0,0,0,0,0,0,0,0,0,0,0,0,0,0,0,0,0,0,0,0,0,0,0,0,0,0.7247796636776955,0,0,0,0,0,0,0,0,0,0,0,0,0,0,0,0,0,0,0,0,0,0,0,0,0.7772031408854596,0,0,0,0,0,0,0,0,0,0,0,0,0,0,0,0,0,0,0,0,0,0,0,0,0,0,0,0,0,0,0.8326831776556043,0,0,0,0,0,0,0,0,0,0,0,0,0,0,0,0,0,4
MODEL1006230036,0.6715486801956775,0.6443940149772542,0.6309573444801932,0,0.7247796636776955,0,0,0.6706583898414208,0.6443940149772542,0,0,0,0,0,0,0,0,0,0,0.6597539553864471,0.6706583898414208,0,0,0.7772031408854596,0,0,0,0.7247796636776955,0.7772031408854596,0.8326831776556043,0,0,0,0,0,0.7020140609716441,0,0,0,0,0,0,0,0,0,0,0,0,0,0,0,0.6851754923600618,0,0,0,0,0,0,0,0,0,0,0,0,0,0,0,0,0,0,0,0,0,0,0,0,0,0,0,0,0,0,0,0,0,0.7071067811865476,0,0.8444943144689757,0,0,0,0,0,0,0,0,0,0,0,0,0,0,0,0,0,0.7131706471704253,0.6851754923600618,0,0,0,0,0,0,0,0.741284495989096,0,0,0,0,0,0,0,0,0,0,0,0,0,0,0,0.7590745364185408,0.7230200263994838,0,0,0,0,0,0,0,0,0,0.8326831776556043,0,0,0,0,0,0,0,0,0,0,0,0,0,0,0,0,0,0,0,0,0,0,0,0,0,0,0,0,0,0,0,0,0,0,0,0,0,0,0,0,0,0,0,0,0,0,0,0,0,0,0,0,0,0,0,0,0,0,0,0,0,0,0,0,0,0,0,0,0,0,0,0,0,0,0,0,0,0,0,0,0,0,0,0.7418363755904023,0,0,0,0,0,0,0,0,0,0,0,0,0,0,0.7020140609716441,0,0,0,0,0,0,0,0,0,0,0,0,0,0,0,0,0,0,0,0,0,0,0,0,0,0,0,0,0,0,0,0,0,0,0,0,0,0,0,0,0,0,0,0,0,0,0,0,0,0,0,0,0,0,0,0,0,0,0,0
MODEL1302010021,0.6933612743506347,0.820335356007638,0,0,0,0,0.820335356007638,0,0,0,0,1,0,0,0,0,0,0,0,0,0,0,0,0,0,0,0,0,0,0,0,0,0,0,0,0,0,0,0,0,0,0,0,0,0,0,0,0,0,0,0,0,0,0,0,0,0,0,0,0,0,0,0,0,0,0,0,0,0,0,0,0,0,0,0,0,0,0,0,0,0,0,0,0,0,0,0,0,0,0,0,0,0,0,0,0,0,0,0,0,0,0,0,0,0,0,0,0,0,0,0,0,0,0,0,0,0,0,0,0,0,0,0,0,0,0,0,0,0,0,0,0,0,0,0,0,0,0,0,0,0,0,0,0,0,0,0,0,0,0,0,0,0,0,0,0,0,0,0,0,0,0,0,0,0,0,0,0,0,0,0,0,0,0,0,0,0,0,0,0,0,0,0,0,0,0,0,0,0,0,0,0,0,0,0,0,0,0,0,0,0,0,0,0,0,0,0,0,0,0,0,0,0,0,0,0,0,0,0,0,0,0,0,0,0,0,0,0,0,0,0,0,0,0,0,0,0,0,0,0,0,0,0,0,0,0,0,0,0,0,0,0,0,0,0,0,0,0,0,0,0,0,0,0,0,0,0,0,0,0,0,0,0,0,0,0,0,0,0,0,0,0,0,0,0,0,0,0,0,0,0,0,0,0,0,0,0,0,0,0,3
MODEL9086518048,0.6715486801956775,0.7247796636776955,0.7247796636776955,0.7247796636776955,0.7247796636776955,0.7463018954975199,0,0.7463018954975199,0.7247796636776955,0.7463018954975199,0,0,0,0.7772031408854596,0,0,0,0,0,0,0,0,0,0,0,0,0,0.6597539553864471,0.6851754923600618,0.7230200263994838,0,0,0,0,0.7772031408854596,0,0,0,0,0,0,0,0.7937005259840998,0.7772031408854596,0,0.7937005259840998,0,0,0,0,0,0,0,0,0,0,0,0,0,0,0,0,0,0,0,0,0,0,0.8326831776556043,0,0.7020140609716441,0,0,0,0,0,0,0,0,0,0.7590745364185408,0,0,0,0,0,0,0,0,0,0,0.7418363755904023,0,0,0.7772031408854596,0,0,0,0,0,0.7945974047018523,0,0,0,0,0,0,0,0,0,0,0,0,0,0,0,0,0,0,0,0,0,0,0,0,0,0,0,0,0,0,0,0,0,0,0,0,0,0,0,0,0,0,0,0,0,0,0,0,0,0,0,0,0,0,0,0,0,0,0,0,0,0,0,0,0,0,0,0,0,0,0,0,0,0,0,0,0,0,0,0,0,0,0,0,0,0,0,0.7590745364185408,0,0,0,0,0,0,0,0,0,0,0,0,0,0,0,0,0,0,0.7806675962932174,0,0,0,0,0,0,0,0,0,0,0,0,0,0,0,0,0,0,0,0,0,0,0,0,0,0,0,0,0,0,0,0,0,0,0,0,0,0,0,0,0,0,0,0,0,0,0,0,0,0,0,0,0,0,0,0,0,0,0,0,0,0,0,0.7945974047018523,0,0,0,0,0,0,0,0,0,0,0,0,0,0,0,0,0,0,0,0,0,0,0,0,0,0,0,0,4
MODEL6624131052,0.6851754923600618,0.7020140609716441,0,0,0,0,0.7230200263994838,0,0,0,0.7418363755904023,0.7418363755904023,0,0,0.76472449133173,0,0,0,0.7418363755904023,0,0,0,0,0,0,0.7806675962932174,0,0,0,0,0.7418363755904023,0,0,0.741284495989096,0,0,0,0,0,0,0,0.7741685699586097,0,0,0,0,0,0,0.7573065421245532,0,0,0,0,0.7806675962932174,0.8637415917898287,0.820335356007638,0,0,0,0,0,0,0,0,0,0,0,0,0,0,0,0,0,0,0,0,0,0,0,0,0,0,0,0,0,0,0,0,0,0,0,0,0,0,0,0,0,0,0,0,0,0,0,0,0,0,0,0,0,0,0,0,0,0,0,0,0,0,0,0,0,0,0,0,0,0,0,0,0,0,0,0,0.806870800810205,0,0,0,0,0,0,0,0,0,0,0,0,0,0,0,0,0,0,0,0,0,0,0,0,0,0,0.8079330720145728,0.7573065421245532,0,0,0,0,0,0,0,0,0,0,0,0,0,0,0,0,0,0,0,0,0,0,0,0,0,0,0,0,0,0,0,0,0,0,0,0,0,0,0,0,0,0.8547513999071522,0,0,0,0,0,0,0,0,0,0,0,0,0,0,0,0,0,0.787492633537858,0.8177654339579425,0,0,0,0,0,0,0,0,0,0,0,0,0,0,0,0,0,0,0,0,0,0,0,0,0,0,0,0,0,0,0,0,0,0,0,0,0,0,0,0,0,0,0,0,0,0,0,0,0,0,0,0,0,0,0,0,0,0,0,0,0,0,0,0,0,0,0,0,0,0,0,0,0,0,0,0,0,0,1
MODEL0072364382,0.6933612743506347,0,0.7305999556432364,0.820335356007638,0,0,0,0,0,0,0,0,0,0,0,0,0,0,0,0,0,0,0,0,0,0,0,0,0,0,0,0,0,0,0,0,0,0,0,0,0,0,0,0,0,0,0,0,0,0,0,0,0,0,0,0,0,0,0,0,0,0,0,0,0,0,0,0,0,0,0,0,0,0,0,0,0,0,0,0,0,0,0,0,0,0,0,0,0,0,0,0,0,0,0,0,0,0,0,0,0,0,0,0,0,0,0,0,0,0,0,0,0,0,0,0,0,0,0,0,0,0,0,0,0,0,0,0,0,0,0,0,0,0,0,0,0,0,0,0,0,0,0,0,0,0,0,0,0,0,0,0,0,0,0,0,0,0,0,0,0,0,0,0,0,0,0,0,0,0,0,0,0,0,0,0,0,0,0,0,0,0,0,0,0,0,0,0,0,0,0,0,0,0,0,0,0,0,0,0,0,0,0,0,0,0,0,0,0,0,0,0,0,0,0,0,0,0,0,0,0,0,0,0,0,0,0,0,0,0,0,0,0,0,0,0,0,0,0,0,0,0,0,0,0,0,0,0,0,0,0,0,0,0,0,0,0,0,0,0,0,0,0,0,0,0,0,0,0,0,0,0,0,0,0,0,0,0,0,0,0,0,0,0,0,0,0,0,0,0,0,0,0,0,0,0,0,0,0,0,9
MODEL1007060000,0.6933612743506347,0.820335356007638,0,0,0,0,0.820335356007638,0,0,0,0,1,0,0,0,0,0,0,0,0,0,0,0,0,0,0,0,0,0,0,0,0,0,0,0,0,0,0,0,0,0,0,0,0,0,0,0,0,0,0,0,0,0,0,0,0,0,0,0,0,0,0,0,0,0,0,0,0,0,0,0,0,0,0,0,0,0,0,0,0,0,0,0,0,0,0,0,0,0,0,0,0,0,0,0,0,0,0,0,0,0,0,0,0,0,0,0,0,0,0,0,0,0,0,0,0,0,0,0,0,0,0,0,0,0,0,0,0,0,0,0,0,0,0,0,0,0,0,0,0,0,0,0,0,0,0,0,0,0,0,0,0,0,0,0,0,0,0,0,0,0,0,0,0,0,0,0,0,0,0,0,0,0,0,0,0,0,0,0,0,0,0,0,0,0,0,0,0,0,0,0,0,0,0,0,0,0,0,0,0,0,0,0,0,0,0,0,0,0,0,0,0,0,0,0,0,0,0,0,0,0,0,0,0,0,0,0,0,0,0,0,0,0,0,0,0,0,0,0,0,0,0,0,0,0,0,0,0,0,0,0,0,0,0,0,0,0,0,0,0,0,0,0,0,0,0,0,0,0,0,0,0,0,0,0,0,0,0,0,0,0,0,0,0,0,0,0,0,0,0,0,0,0,0,0,0,0,0,0,0,3
MODEL1006230102,0.6715486801956775,0,0.6988271187715792,0.7247796636776955,0.7247796636776955,0,0,0,0,0,0,0,0,0,0,0,0,0,0,0,0,0,0,0,0,0,0,0,0,0,0,0,0,0,0.7772031408854596,0,0,0,0.7772031408854596,0,0,0,0,0,0,0,0,0,0,0,0,0,0,0,0,0,0,0,0,0,0,0,0,0,0,0,0,0,0,0,0,0,0,0,0,0,0,0,0,0,0,0,0,0,0,0,0,0,0,0,0,0,0,0,0,0,0,0,0,0,0,0,0,0,0,0,0,0,0,0,0,0,0,0,0,0,0,0,0,0,0,0,0,0,0,0,0,0,0,0,0,0,0,0,0,0,0,0,0,0,0,0,0,0,0,0,0,0,0,0,0,0,0,0,0,0,0,0,0,0,0,0,0,0,0,0,0,0,0,0,0,0,0,0,0,0,0,0,0,0,0,0,0,0,0,0,0,0,0,0,0,0,0,0,0,0,0,0,0,0,0,0,0,0,0,0,0,0,0,0,0,0,0,0,0,0,0,0,0,0,0,0,0,0,0,0,0,0,0,0,0,0,0,0,0,0,0,0,0,0,0,0,0,0,0,0,0,0,0,0,0,0,0,0,0,0,0,0,0,0,0,0,0,0,0,0,0,0,0,0,0,0,0,0,0,0,0,0,0,0,0,0,0,0,0,0,0,0,0,0,0,0,0,0.8326831776556043,0,0,0,0,0,0,10
MODEL1108260006,0.6729500963161781,0,0.668740304976422,0,0.668740304976422,0,0,0,0,0,0,0,0,0,0,0,0,0,0,0.7598356856515925,0.7348672461377994,0,0,0,0,0,0,0,0,0,0,0,0,0,0,0,0,0,0.7348672461377994,0,0,0,0,0,0,0,0,0,0,0,0,0,0,0,0,0,0,0,0,0,0,0,0,0,0,0,0,0,0,0,0,0,0,0,0,0,0,0,0,0,0,0,0,0,0,0,0,0,0,0,0,0,0,0,0,0,0,0,0,0,0,0,0,0,0,0,0,0,0,0,0,0,0,0,0,0,0,0,0,0,0,0,0,0,0,0,0,0,0,0,0,0,0,0,0,0,0,0,0,0,0,0,0,0,0,0,0,0,0,0,0,0,0,0,0,0,0,0,0,0,0,0,0,0,0,0,0,0,0,0,0,0,0,0,0,0,0,0,0,0,0,0,0,0,0,0,0,0,0,0,0,0,0,0,0,0,0,0,0,0,0,0,0,0,0,0,0,0,0,0,0,0,0,0,0,0,0,0,0,0,0,0,0,0,0,0,0,0,0,0,0,0,0,0,0,0,0,0,0,0,0,0,0,0,0,0,0,0,0,0,0,0,0,0,0,0,0,0,0,0,0,0,0,0,0,0,0,0,0,0,0,0,0,0,0,0,0,0,0,0,0,0,0,0,0,0,0,0,0,0,0,0,0,0,0,0,0,0,0,0,10
MODEL8583955822,0.6729500963161781,0.7348672461377994,0,0,0,0,0.7598356856515925,0,0,0,0.757858283255199,0.8027415617602307,0,0,0.8572439828530728,0,0,0,0,0,0,0,0,0,0,0,0,0,0,0,0.677610913400481,0,0,0,0,0,0,0,0,0,0,0,0,0,0,0,0,0,0,0,0,0,0,0.7219680097109132,0.8079330720145728,0.76472449133173,0,0,0,0,0,0,0,0,0,0,0,0,0,0,0,0,0,0,0,0,0,0,0,0,0,0.8189373540396242,0,0,0,0,0,0,0,0,0,0,0,0,0,0,0,0,0,0,0,0,0,0,0,0,0,0,0,0,0,0,0,0,0,0,0,0,0,0,0,0,0,0,0,0,0,0,0,0,0,0,0,0,0,0,0.8547513999071522,0,0,0,0,0,0,0,0,0,0,0.7247796636776955,0,0,0,0,0,0,0,0,0,0,0,0,0,0,0,0,0,0.8815912549960212,0,0,0,0,0,0.6993157867655625,0,0,0,0,0,0,0,0,0,0,0,0,0,0,0,0,0,0,0,0,0,0,0,0,0,0,0,0,0,0,0,0,0,0,0,0,0,0,0,0,0,0,0,0,0,0,0,0,0,0,0,0,0,0,0,0,0,0,0,0,0,0,0,0,0,0,0,0,0,0.757858283255199,0,0,0,0,0,0,0,0,0,0,0,0,0,0,0,0,0,0,0,0,0,0,0,0,0,0,0,0,0,0,0,0,0,0,0,0,0,0,0,0,0,0,0,0,0,0,0,0,0,0,0,0,0,0,0,0,0,0,1
MODEL1202270000,0.668740304976422,0,0.6993157867655625,0.7348672461377994,0,0,0.7348672461377994,0,0,0,0.757858283255199,0,0,0,0,0,0,0,0,0,0,0,0,0,0,0,0.8189373540396242,0,0,0,0,0,0,0,0,0,0,0,0,0,0.8027415617602307,0,0,0,0,0,0,0,0,0,0,0,0,0,0,0,0,0,0,0,0,0,0,0,0,0,0,0,0,0.8815912549960212,0,0,0,0,0,0,0,0,0,0,0,0,0,0,0,0,0,0,0,0,0,0,0,0,0,0,0,0,0,0,0,0,0,0,0,0,0,0,0,0,0,0,0,0,0,0,0.8908987181403393,0,0,0,0,0,0,0,0,0,0,0,0,0,0,0,0,0,0,0,0,0,0,0,0,0,1,0,0,0,0,0,0,0,0,0,0,0,0,0,0,0,0,0,0,0,0,0,0,0,0,0,0,0,0,0,0,0,0,0,0,0,0,0,0,0,0,0,0,0,0,0,0,0,0,0,0,0,0,0,0,0,0,0,0,0,0,0,0,0,0,0,0,0,0,0,0,0,0,0,0,0,0,0,0,0,0,0,0,0,0,0,0,0,0,0,0,0,0,0,0,0,0,0,0,0,0,0,0,0,0,0,0,0,0,0,0,0,0,0,0,0,0,0,0,0,0,0,0,0,0,0,0,0,0,0,0,0,0,0,0,0,0,0,0,0,0,0,0,0,0,0,0,0,0,0,0,0,0,0,0,0,0,0,9
MODEL1008060000,0.668740304976422,0,0,0,0,0,0,0,0,0,0,0,0,0,0,0,0,0,0,0,0,0,0,0,0,0,0,0,0,0,0,0,0,0,0,0,0,0,0,0,0,0,0,0,0,0,0,0,0,0,0,0,0,0,0,0,0,0,0,0,0,0,0,0,0,0,0,0,0,0,0,0,0,0,0,0,0,0,0,0,0,0,0,0,0,0,0,0,0,0,0,0,0,0,0,0,0,0,0,0,0,0,0,0,0,0,0,0,0,0,0,0,0,0,0,0.7348672461377994,0,0,0,0,0,0,0,0,0,0,0,0,0,0,0,0,0,0,0,0,0,0,0,0,0,0,0,0,0,0,0,0,0,0,0,0,0,0,0.8027415617602307,0,0,0,0,0,0,0,0,0,0,0,0,0,0,0,0,0,0,0,0.8815912549960212,0,0,0,0,0,0,0,0,0,0,0,0,0,0,0,0,0,0,0,0,0,0,0,0,0,0,0,0,0,0,0,0,0,0,0,0,0,0,0,0,0,0,0,0,0,0,0,0,0,0,0,0,0,0,0,0,0,0,0,0,0,0,0,0,0,0,0,0,0,0,0,0,0,0,0,0,0,0,0,0,0,0,0,0,0,0,0,0,0,0,0,0,0,0,0,0,0,0,0,0,0,0,0,0,0,0,0,0,0,0,0,0,0,0,0,0,0,0,0,0,0,0,0,0,0,16
MODEL2504064544,0.6933612743506347,0,0,0,0,0,0,0,0,0,0,0,0,0,0,0,0,0,0,0,0,0,0,0,0,0,0,0,0,0,0,0,0,0,0,0,0,0,0,0,0,0,0,0,0,0,0,0,0,0,0,0,0,0,0,0,0,0,0,0.820335356007638,0,0,0,0,0,0,0,0,0,0,0,0,0,0,0,0,0,0,0,0,0,0,0,0,0,0,0,0,0.8408964152537145,0,0,0,0,0,0,0,0,0,0,0,0,0,0,0,0,0,0,0,0,0,0,0,0,0,0,0,0,0,0,0,0,0,0,0,0,0,0,0,0,0,0,0,0,0,0,0,0,0,0,0,0,0,0,0,0,0,0,0,0,0,0,0,0,0,0,0,0,0,0,0,0,0,0,0,0,0,0,0,0,0,0,0,0,0,0,0,0,0,0,0,0,0,0,0,0,0,0,0,0,0,0,0,0,0,0,0,0,0,0,0,0,0,0,0,0,0,0,0,0,0,0,0,0,0,1,0,0,0,0,0,0,0,0,0,0,0,0,0,0,0,0,0,0,0,0,0,0,0,0,0,0,0,0,0,0,0,0,0,0,0,0,0,0,0,0,0,0,0,0,0,0,0,0,0,0,0,0,0,0,0,0,0,0,0,0,0,0,0,0,0,0,0,0,0,0,0,0,0,0,0,0,0,0,0,0,0,0,0,0,0,11
MODEL0912160000,0.677610913400481,0,0.7219680097109132,0,0,0,0,0,0,0,0,0,0,0,0,0,0,0,0,0.6851754923600618,0.76472449133173,0,0,0,0,0,0,0,0,0,0,0,0,0,0,0.7230200263994838,0,0,0,0,0,0,0,0,0,0,0,0,0,0,0,0,0,0,0,0,0,0,0,0,0,0,0,0,0,0,0,0,0,0,0,0,0,0,0,0,0,0,0,0,0,0,0,0,0.7590745364185408,0,0,0,0,0,0,0,0,0,0,0,0,0,0,0,0,0.7945974047018523,0,0,0,0,0,0,0,0,0,0,0,0,0,0,0,0,0,0,0,0,0,0,0,0,0,0,0,0,0,0,0,0,0,0,0,0,0,0,0,0,0,0,0,0,0,0,0,0,0,0,0,0,0,0,0,0,0,0,0,0,0,0,0,0,0,0,0,0,0,0,0,0,0,0,0,0,0,0,0,0,0,0,0,0,0,0,0,0,0,0,0,0,0,0,0,0,0,0,0,0,0,0,0,0,0,0,0,0,0,0,0,0,0,0,0,0,0,0,0,0,0,0,0,0,0,0,0,0,0,0,0,0,0,0,0,0,0,0,0,0,0,0,0,0,0,0,0,0,0,0,0,0,0,0,0,0,0,0,0,0,0,0,0,0,0,0.8079330720145728,0,0,0,0,0,0,0,0,0,0,0,0,0,0,0,0,0,0,0,0,0,0,0,0,0,0,0,0,0,0,0,0,6
MODEL7007141507,0.6715486801956775,0.7247796636776955,0.677610913400481,0.6988271187715792,0.6988271187715792,0.7463018954975199,0,0.7463018954975199,0.7247796636776955,0.7463018954975199,0,0,0,0.7772031408854596,0,0,0,0,0,0,0,0,0,0,0,0,0,0,0,0,0,0,0,0,0,0,0.8326831776556043,0,0,0,0,0,0,0,0,0,0,0,0,0,0,0,0,0,0,0,0,0,0,0,0,0,0,0,0,0,0,0,0,0,0,0,0,0,0,0,0,0,0,0,0,0,0,0,0,0,0,0,0,0,0,0,0,0,0,0,0,0,0,0,0,0,0,0,0,0,0,0,0,0,0,0,0,0,0,0,0,0,0,0,0,0,0,0,0,0,0,0,0,0,0,0,0,0,0,0,0,0,0,0,0,0,0,0,0,0,0,0,0,0,0,0,0,0,0,0,0,0,0,0,0,0,0,0,0,0,0,0,0,0,0,0,0,0,0,0,0,0,0,0,0,0,0,0,0,0,0,0,0,0,0,0,0,0,0,0,0,0,0,0,0,0,0,0,0,0,0,0,0,0,0,0,0,0,0,0,0,0,0.8988509731955419,0,0,0,0,0,0,0,0,0,0,0,0,0,0,0,0,0,0,0,0,0,0,0,0,0,0,0,0,0,0,0,0,0,0,0,0,0,0,0,0,0,0,0,0,0,0,0,0,0,0,0,0,0,0,0,0,0,0,0,0,0,0,0,0,0,0,0,0,0,0,0,0,0,0,0,0,0,0,0,0,0,4
MODEL4025650992,0.6933612743506347,0,0,0,0,0,0,0,0,0,0,0,0.6933612743506347,0,0,0,0.6729500963161781,0.7305999556432364,0,0,0,0.7598356856515925,0.8408964152537145,0,0.820335356007638,0,0,0,0,0,0,0,0,0,0,0,0,0,0,0,0,0,0,0,0,0,0,0,0,0,0,0,0,0,0,0,0,0,0,0,0,0,0,0,0,0,0,0,0,0,0,0,0,0,0,0,0,0,0,0,0,0,0,0,0,0,0,0,0,0,0,0,0,0,0,0,0,0,0,0,0,0,0,0,0,0,0,0,0,0,0,0,0,0,0,0,0,0,0,0,0,0,0,0,0,0,0,0,0,0,0,0,0,0,0,0,0,0,0,0,0,0,0,0,0,0,0,0,0,0,0,0,0,0,0,0,0,0,0,0,0,0,0,0,0,0,0,0,0,0,0,0,1,0.820335356007638,0,0,0,0,0,0,0,0,0,0,0,0,0,0,0,0,0,0,0,0,0,0,0,0,0,0,0,0,0,0,0,0,0,0,0,0,0,0,0,0,0,0,0,0,0,0,0,0,0,0,0,0,0,0,0,0,0,0,0,0,0,0,0,0,0,0,0,0,0,0,0,0,0,0,0,0,0,0,0,0,0,0,0,0,0,0,0,0,0,0,0,0,0,0,0,0,0,0,0,0,0,0,0,0,0,0,0,0,0,0,0,0,0,0,0,0,0,0,0,0,0,0,0,0,0,0,17
MODEL1012140001,0.668740304976422,0,0,0,0.7348672461377994,0,0,0,0,0,0,0,0,0,0,0,0,0,0,0,0,0,0,0.757858283255199,0,0,0,0,0,0,0,0.8189373540396242,0,0,0,0,0,0,0,0,0,0,0,0,0,0,0,0,0,0,0,0,0,0,0,0,0.8027415617602307,0,0,0,0,0,0,0,0,0,0,0,0,0,0,0.8815912549960212,0,0,0,0,0,0,0,0,0,0,0,0,0,0,0,0,0,0,0,0,0,0,0,0,0,0,0,0,0,0,0,0,0,0,0,0,0,0,0,0,0,0,0,0,0,0,0,0,0,0,0,0,0,0,0,0,0,0,0,0,0,0,0,0,0,0,0,0,0,0,0,0,0,0,0,0,0,0,0,0,0,0,0,0,0,0,0,0,0,0,0,0,0,0,0,0,0,0,0,0,0,0,0,0,0,0,0,0,0,0,0,0,0,0,0,0,0,0,0,0,0,0,0,0,0,0,0,0,0,0,0,0,0,0,0,0,0,0,0,0,0,0,0,0,0,0,0,0,0,0,0,0,0,0,0,0,0,0,0,0,0,0,0,0,0,0,0,0,0,0,0,0,0,0,0,0,0,0,0,0,0,0,0,0,0,0,0,0,0,0,0,0,0,0,0,0,0,0,0,0,0,0,0,0,0,0,0,0,0,0,0,0,0,0,0,0,0,0,0,0,0,0,0,0,0,0,0,0,5
MODEL9574422639,0.668740304976422,0.6993157867655625,0,0,0,0,0.7348672461377994,0,0,0,0.757858283255199,0.757858283255199,0,0,0.757858283255199,0,0,0,0.6597539553864471,0,0,0,0,0,0,0.7020140609716441,0,0,0,0,0.677610913400481,0,0,0,0,0,0,0,0,0,0,0,0,0,0,0,0,0.7020140609716441,0,0,0,0,0,0.7219680097109132,0.8079330720145728,0.76472449133173,0,0,0.7020140609716441,0,0.7418363755904023,0.7020140609716441,0,0,0.7020140609716441,0.7020140609716441,0,0,0,0,0,0,0,0,0,0,0,0,0,0,0,0.8189373540396242,0.7020140609716441,0,0,0,0,0,0,0,0,0,0,0,0,0,0,0,0,0,0,0,0,0,0,0,0,0,0,0,0.7806675962932174,0,0,0,0,0,0,0.757858283255199,0,0,0,0,0,0,0,0,0,0,0,0,0,0,0,0,0,0.8189373540396242,0.8547513999071522,0,0,0,0,0,0,0,0,0,0,0.8189373540396242,0,0,0,0,0,0,0,0,0,0,0,0,0,0,0,0,0,0,0,0,0.7219680097109132,0,0,0,0,0,0,0,0,0,0,0,0,0,0,0,0,0,0,0,0,0,0,0,0,0,0,0,0,0,0,0,0,0,0,0,0,0,0,0,0.7219680097109132,0,0,0,0,0,0,0,0,0,0,0,0,0,0,0,0,0,0,0,0,0,0,0,0,0.8027415617602307,0.7020140609716441,0.7418363755904023,0,0,0,0,0,0,0,0,0,0,0,0,0,0,0,0,0,0,0,0,0,0,0,0,0,0,0,0.76472449133173,0.8079330720145728,0,0,0,0,0,0,0,0,0,0,0,0,0,0,0,0,0,0,0,0,0,0,0,0,0,0,0,0,0,0,0,0,0,0,0.7806675962932174,1
MODEL1667758030,0.6715486801956775,0.7247796636776955,0.6443940149772542,0.6597539553864471,0,0.7020140609716441,0,0,0,0,0,0,0.6933612743506347,0,0,0,0.5993369747117588,0.6313850355589192,0,0,0,0.668740304976422,0.7071067811865476,0,0.820335356007638,0,0,0,0,0,0,0,0,0,0,0,0,0,0,0,0,0,0,0,0,0,0,0,0,0.6313850355589192,0.7071067811865476,0,0,0,0,0,0,0,0,0,0,0,0,0,0,0,0,0.7219680097109132,0,0,0,0,0,0,0.6729500963161781,0.7598356856515925,0,0,0,0.6309573444801932,0,0,0,0,0,0,0.668740304976422,0,0,0,0.6706583898414208,0,0,0,0,0,0,0,0,0,0,0,0,0,0.7463018954975199,0,0,0,0,0,0,0,0,0,0,0,0,0,0,0,0,0,0,0,0,0,0,0,0,0.7348672461377994,0,0,0,0,0,0,0,0,0,0,0,0,0,0,0,0,0,0,0,0,0,0,0,0,0,0.677610913400481,0,0,0,0,0,0,0,0,0,0,0,0,0,0,0,0,0,0,0,0.7418363755904023,0,0,0,0,0,0,0,0,0,0,0,0,0,0,0,0,0,0,0.7219680097109132,0,0,0,0,0,0,0,0,0.7071067811865476,0.76472449133173,0,0,0,0,0,0,0,0.76472449133173,0,0,0,0,0,0,0,0,0,0.7937005259840998,0,0,0,0,0,0,0,0,0,0,0,0,0,0,0,0,0.8027415617602307,0,0,0,0,0,0,0,0,0,0,0,0,0,0,0,0,0,0,0,0,0,0,0,0,0,0,0,0,0,0,0.8572439828530728,0,0,0,0,0,0,0,0,0,0.7418363755904023,0,0,0,0,0,0,0,0,0,0,0,0,0,0,0,0,0,0,0,11
MODEL1006230034,0.6729500963161781,0.7071067811865476,0,0,0,0,0.7598356856515925,0,0,0,0,0.7833810369372723,0,0,0,0,0,0,0,0,0,0,0,0,0,0,0,0,0,0,0,0,0,0,0,0,0,0,0,0,0,0,0,0,0,0,0,0,0,0,0,0,0,0,0,0,0,0,0,0,0.8189373540396242,0.757858283255199,0,0,0,0,0,0,0,0,0,0,0,0,0,0,0,0,0,0,0,0,0,0,0,0,0,0,0,0,0,0,0,0,0,0,0,0,0,0,0,0,0,0,0,0,0,0,0,0,0.8908987181403393,0,0,0,0,0,0,0,0,0,0,0,0,0,0,0,0,0,0,0,0,0,0,0,0,0,0,0,0,0,0,0,0,0,0,0,0,0.8705505632961241,0,0,0,0,0,0,0,0,0,0,0,0,0,0,0,0,0,0,0,0,0,0,0,0,0,0,0,0,0,0,0,0,0,0,0,0,0,0,0,0,0,0,0,0,0,0,0,0,0,0,0,0,0,0,0,0,0,0,0,0,0,0,0,0,0,0,0,0,0,0,0,0,0,0,0,0,0,0,0,0,0,0,0,0,0,0.8572439828530728,0,0,0,0,0,0,0,0,0,0,0,0,0,0,0,0,0,0,0,0,0,0,0,0,0,0,0,0,0,0,0,0,0,0,0,0,0,0,0,0,0,0,0,0,0,0,0,0,0,0,0,0,0,0,0,0,0,0,0,0,0,0,0,0,0,0,1
MODEL1408050003,0.6715486801956775,0.7247796636776955,0.677610913400481,0.6988271187715792,0.6988271187715792,0.7463018954975199,0,0.7463018954975199,0.7247796636776955,0.7463018954975199,0,0,0,0.7772031408854596,0,0.6715486801956775,0,0,0,0,0,0,0,0,0,0,0,0,0,0,0,0,0,0,0,0,0,0,0,0,0,0,0,0,0,0.8326831776556043,0,0,0,0,0,0,0,0,0,0,0,0,0,0,0,0,0,0,0,0,0,0,0,0,0,0,0,0,0,0,0,0,0,0,0,0,0,0,0,0,0,0,0,0,0,0,0,0,0,0,0,0,0,0,0,0,0,0,0,0,0,0,0,0,0,0,0,0,0,0,0,0,0,0,0,0,0,0,0,0,0,0,0,0,0,0,0,0,0,0,0,0,0,0,0,0,0,0,0,0,0,0,0,0,0,0,0,0,0,0,0,0,0,0,0,0,0,0,0,0,0,0,0,0,0,0,0,0,0,0,0,0,0,0,0,0,0,0,0,0,0,0,0,0,0,0,0,0,0,0,0,0,0,0,0,0,0,0,0,0,0,0,0,0,0,0,0,0,0,0,0,0,0,0,0,0,0,0,0,0,0.7247796636776955,0,0,0,0,0,0,0,0,0,0,0,0,0,0,0,0,0,0,0,0,0,0,0,0,0.7772031408854596,0,0,0,0,0,0,0,0,0,0,0,0,0,0,0,0,0,0,0,0,0,0,0,0,0,0,0,0,0,0,0.8326831776556043,0,0,0,0,0,0,0,0,0,0,0,0,0,0,0,0,0,4
MODEL1108260000,0.6729500963161781,0,0.668740304976422,0,0.668740304976422,0,0,0,0,0,0,0,0,0,0,0,0,0,0,0.7598356856515925,0.7348672461377994,0,0,0,0,0,0,0,0,0,0,0,0,0,0,0,0,0,0.7348672461377994,0,0,0,0,0,0,0,0,0,0,0,0,0,0,0,0,0,0,0,0,0,0,0,0,0,0,0,0,0,0,0,0,0,0,0,0,0,0,0,0,0,0,0,0,0,0,0,0,0,0,0,0,0,0,0,0,0,0,0,0,0,0,0,0,0,0,0,0,0,0,0,0,0,0,0,0,0,0,0,0,0,0,0,0,0,0,0,0,0,0,0,0,0,0,0,0,0,0,0,0,0,0,0,0,0,0,0,0,0,0,0,0,0,0,0,0,0,0,0,0,0,0,0,0,0,0,0,0,0,0,0,0,0,0,0,0,0,0,0,0,0,0,0,0,0,0,0,0,0,0,0,0,0,0,0,0,0,0,0,0,0,0,0,0,0,0,0,0,0,0,0,0,0,0,0,0,0,0,0,0,0,0,0,0,0,0,0,0,0,0,0,0,0,0,0,0,0,0,0,0,0,0,0,0,0,0,0,0,0,0,0,0,0,0,0,0,0,0,0,0,0,0,0,0,0,0,0,0,0,0,0,0,0,0,0,0,0,0,0,0,0,0,0,0,0,0,0,0,0,0,0,0,0,0,0,0,0,0,0,0,0,10
MODEL6618294363,0.6933612743506347,0,0.5993369747117588,0.6313850355589192,0,0,0.6313850355589192,0,0,0,0.668740304976422,0,0,0,0,0,0,0,0,0.820335356007638,0,0,0,0,0,0,0.7348672461377994,0,0,0,0,0,0,0,0,0,0,0,0,0,0.7071067811865476,0,0,0,0,0,0,0,0,0,0,0,0,0,0,0,0,0,0,0,0,0,0,0,0,0,0,0,0,0.7833810369372723,0,0,0,0,0,0,0,0,0,0,0,0,0,0,0,0,0,0,0,0,0,0,0,0,0,0,0,0,0,0,0,0,0,0,0,0,0,0,0,0,0,0,0,0,0,0,0.8027415617602307,0,0,0,0,0,0,0,0,0,0,0,0,0,0,0,0,0,0,0,0,0,0,0,0,0,0.8705505632961241,0,0,0,0,0,0,0,0,0,0,0,0,0,0,0,0,0,0,0,0,0,0,0,0,0,0,0,0,0,0.8408964152537145,0.7305999556432364,0,0,0,0,0,0,0,0,0,0,0,0,0,0,0,0,0,0,0,0,0,0,0,0,0,0,0,0,0,0,0,0,0,0,0,0,0,0,0,0,0,0,0,0,0,0,0,0,0,0,0,0,0,0,0,0,0,0,0,0,0,0,0,0,0,0,0,0,0,0,0,0,0,0,0,0,0,0,0,0,0,0,0,0,0,0,0,0,0,0,0,0,0,0,0,0,0,0,0,0,0,0,0,0,0,0,0,0,0,0,0,0,0,0,0,0,0,0,0,0,0,0,0,0,0,0,17
MODEL1302010040,0.6933612743506347,0.820335356007638,0,0,0,0,0.820335356007638,0,0,0,0,1,0,0,0,0,0,0,0,0,0,0,0,0,0,0,0,0,0,0,0,0,0,0,0,0,0,0,0,0,0,0,0,0,0,0,0,0,0,0,0,0,0,0,0,0,0,0,0,0,0,0,0,0,0,0,0,0,0,0,0,0,0,0,0,0,0,0,0,0,0,0,0,0,0,0,0,0,0,0,0,0,0,0,0,0,0,0,0,0,0,0,0,0,0,0,0,0,0,0,0,0,0,0,0,0,0,0,0,0,0,0,0,0,0,0,0,0,0,0,0,0,0,0,0,0,0,0,0,0,0,0,0,0,0,0,0,0,0,0,0,0,0,0,0,0,0,0,0,0,0,0,0,0,0,0,0,0,0,0,0,0,0,0,0,0,0,0,0,0,0,0,0,0,0,0,0,0,0,0,0,0,0,0,0,0,0,0,0,0,0,0,0,0,0,0,0,0,0,0,0,0,0,0,0,0,0,0,0,0,0,0,0,0,0,0,0,0,0,0,0,0,0,0,0,0,0,0,0,0,0,0,0,0,0,0,0,0,0,0,0,0,0,0,0,0,0,0,0,0,0,0,0,0,0,0,0,0,0,0,0,0,0,0,0,0,0,0,0,0,0,0,0,0,0,0,0,0,0,0,0,0,0,0,0,0,0,0,0,0,3
MODEL9107330008,0.6715486801956775,0.7247796636776955,0.677610913400481,0.6988271187715792,0.6988271187715792,0.7463018954975199,0,0.7463018954975199,0.7247796636776955,0.7463018954975199,0,0,0,0.7772031408854596,0,0,0,0,0,0,0,0,0,0,0,0,0,0,0,0,0,0,0,0,0,0,0.8326831776556043,0,0,0,0,0,0,0,0,0,0,0,0,0,0,0,0,0,0,0,0,0,0,0,0,0,0,0,0,0,0,0,0,0,0,0,0,0,0,0,0,0,0,0,0,0,0,0,0,0,0,0,0,0,0,0,0,0,0,0,0,0,0,0,0,0,0,0,0,0,0,0,0,0,0,0,0,0,0,0,0,0,0,0,0,0,0,0,0,0,0,0,0,0,0,0,0,0,0,0,0,0,0,0,0,0,0,0,0,0,0,0,0,0,0,0,0,0,0,0,0,0,0,0,0,0,0,0,0,0,0,0,0,0,0,0,0,0,0,0,0,0,0,0,0,0,0,0,0,0,0,0,0,0,0,0,0,0,0,0,0,0,0,0,0,0,0,0,0,0,0,0,0,0,0,0,0,0,0,0,0,0,0.8988509731955419,0,0,0,0,0,0,0,0,0,0,0,0,0,0,0,0,0,0,0,0,0,0,0,0,0,0,0,0,0,0,0,0,0,0,0,0,0,0,0,0,0,0,0,0,0,0,0,0,0,0,0,0,0,0,0,0,0,0,0,0,0,0,0,0,0,0,0,0,0,0,0,0,0,0,0,0,0,0,0,0,0,4
MODEL6623009547,0.6715486801956775,0.7247796636776955,0.677610913400481,0.6988271187715792,0.6988271187715792,0.7463018954975199,0,0.7463018954975199,0.7247796636776955,0.7463018954975199,0,0,0,0.7772031408854596,0,0,0,0,0,0,0,0,0,0,0,0,0,0,0,0,0,0,0,0,0,0,0.8326831776556043,0,0,0,0,0,0,0,0,0,0,0,0,0,0,0,0,0,0,0,0,0,0,0,0,0,0,0,0,0,0,0,0,0,0,0,0,0,0,0,0,0,0,0,0,0,0,0,0,0,0,0,0,0,0,0,0,0,0,0,0,0,0,0,0,0,0,0,0,0,0,0,0,0,0,0,0,0,0,0,0,0,0,0,0,0,0,0,0,0,0,0,0,0,0,0,0,0,0,0,0,0,0,0,0,0,0,0,0,0,0,0,0,0,0,0,0,0,0,0,0,0,0,0,0,0,0,0,0,0,0,0,0,0,0,0,0,0,0,0,0,0,0,0,0,0,0,0,0,0,0,0,0,0,0,0,0,0,0,0,0,0,0,0,0,0,0,0,0,0,0,0,0,0,0,0,0,0,0,0,0,0,0.8988509731955419,0,0,0,0,0,0,0,0,0,0,0,0,0,0,0,0,0,0,0,0,0,0,0,0,0,0,0,0,0,0,0,0,0,0,0,0,0,0,0,0,0,0,0,0,0,0,0,0,0,0,0,0,0,0,0,0,0,0,0,0,0,0,0,0,0,0,0,0,0,0,0,0,0,0,0,0,0,0,0,0,0,4
MODEL7957942740,0.668740304976422,0.7348672461377994,0,0,0,0,0,0,0,0,0,0,0,0,0,0,0,0,0,0,0,0,0,0,0,0,0,0,0,0,0,0,0,0,0,0,0,0,0,0,0,0,0,0,0,0,0,0,0,0,0,0,0,0,0,0,0,0,0,0.7348672461377994,0,0,0,0,0,0,0,0,0,0,0,0,0,0,0,0,0,0,0,0,0,0,0,0,0,0,0,0,0,0,0,0,0,0,0,0,0,0,0,0,0,0,0,0,0,0,0,0,0,0,0,0,0,0,0,0,0,0,0,0,0,0,0,0,0,0,0,0,0,0,0,0,0,0,0,0,0,0,0,0,0,0,0,0,0,0,0,0,0,0,0,0,0,0,0,0,0,0,0,0,0,0,0,0,0,0,0.8027415617602307,0,0,0,0,0,0,0,0,0,0,0,0,0,0,0,0,0,0,0,0,0,0,0,0,0,0,0,0,0,0,0,0,0,0,0,0,0,0,0,0,0,0,0,0,0,0,0,0,0,0,0,0,0,0,0,0,0,0,0,0,0,0,0,0,0.8815912549960212,0,0,0,0,0,0,0,0,0,0,0,0,0,0,0,0,0,0,0,0,0,0,0,0,0,0,0,0,0,0,0,0,0,0,0,0,0,0,0,0,0,0,0,0,0,0,0,0,0,0,0,0,0,0,0,0,0,0,0,0,0,0,0,0,0,0,0,0,25
MODEL1009150000,0.6933612743506347,0,0.7305999556432364,0.820335356007638,0,0,0,0,0,0,0,0,0,0,0,0,0,0,0,0,0,0,0,0,0,0,0,0,0,0,0,0,0,0,0,0,0,0,0,0,0,0,0,0,0,0,0,0,0,0,0,0,0,0,0,0,0,0,0,0,0,0,0,0,0,0,0,0,0,0,0,0,0,0,0,0,0,0,0,0,0,0,0,0,0,0,0,0,0,0,0,0,0,0,0,0,0,0,0,0,0,0,0,0,0,0,0,0,0,0,0,0,0,0,0,0,0,0,0,0,0,0,0,0,0,0,0,0,0,0,0,0,0,0,0,0,0,0,0,0,0,0,0,0,0,0,0,0,0,0,0,0,0,0,0,0,0,0,0,0,0,0,0,0,0,0,0,0,0,0,0,0,0,0,0,0,0,0,0,0,0,0,0,0,0,0,0,0,0,0,0,0,0,0,0,0,0,0,0,0,0,0,0,0,0,0,0,0,0,0,0,0,0,0,0,0,0,0,0,0,0,0,0,0,0,0,0,0,0,0,0,0,0,0,0,0,0,0,0,0,0,0,0,0,0,0,0,0,0,0,0,0,0,0,0,0,0,0,0,0,0,0,0,0,0,0,0,0,0,0,0,0,0,0,0,0,0,0,0,0,0,0,0,0,0,0,0,0,0,0,0,0,0,0,0,0,0,0,0,0,9
MODEL9087988095,0.668740304976422,0,0,0,0.7348672461377994,0,0,0,0,0,0,0,0,0,0,0,0,0,0,0,0,0,0,0.8027415617602307,0,0,0,0,0,0,0,0,0,0,0,0,0,0,0.757858283255199,0,0,0,0,0,0,0,0,0,0,0,0,0,0,0,0,0,0,0,0,0,0,0,0,0,0,0,0,0,0,0,0,0,0.8189373540396242,0,0,0,0,0,0,0,0,0,0,0,0,0,0,0,0,0,0,0,0,0,0,0,0,0,0,0,0,0,0,0,0,0,0,0,0,0,0,0,0,0,0,0,0,0,0,0,0,0,0,0,0,0,0,0,0,0,0,0,0,0,0,0,0,0,0,0,0,0.8189373540396242,0,0,0,0,0,0,0.8815912549960212,0,0,0,0,0,0,0,0,0,0,0,0,0,0,0,0,0,0,0,0,0,0,0,0,0,0,0,0,0,0,0,0,0,0,0,0,0,0,0,0,0,0,0,0,0,0,0,0,0,0,0,0,0,0,0,0,0,0,0,0,0,0,0,0,0,0,0,0,0,0,0,0,0,0,0,0,0,0,0,0,0,0,0,0,0,0,0,0,0,0,0,0,0,0,0,0,0,0,0,0,0,0,0,0,0,0,0,0,0,0,0,0,0,0,0,0,0,0,0,0,0,0,0,0,0,0,0,0,0,0,0,0,0,0,0,0,0,0,0,0,0,0,0,0,0,0,0,0,0,0,0,12
MODEL1310110030,0.6933612743506347,0.820335356007638,0,0,0,0,0.820335356007638,0,0,0,0,1,0,0,0,0,0,0,0,0,0,0,0,0,0,0,0,0,0,0,0,0,0,0,0,0,0,0,0,0,0,0,0,0,0,0,0,0,0,0,0,0,0,0,0,0,0,0,0,0,0,0,0,0,0,0,0,0,0,0,0,0,0,0,0,0,0,0,0,0,0,0,0,0,0,0,0,0,0,0,0,0,0,0,0,0,0,0,0,0,0,0,0,0,0,0,0,0,0,0,0,0,0,0,0,0,0,0,0,0,0,0,0,0,0,0,0,0,0,0,0,0,0,0,0,0,0,0,0,0,0,0,0,0,0,0,0,0,0,0,0,0,0,0,0,0,0,0,0,0,0,0,0,0,0,0,0,0,0,0,0,0,0,0,0,0,0,0,0,0,0,0,0,0,0,0,0,0,0,0,0,0,0,0,0,0,0,0,0,0,0,0,0,0,0,0,0,0,0,0,0,0,0,0,0,0,0,0,0,0,0,0,0,0,0,0,0,0,0,0,0,0,0,0,0,0,0,0,0,0,0,0,0,0,0,0,0,0,0,0,0,0,0,0,0,0,0,0,0,0,0,0,0,0,0,0,0,0,0,0,0,0,0,0,0,0,0,0,0,0,0,0,0,0,0,0,0,0,0,0,0,0,0,0,0,0,0,0,0,0,3
MODEL1006230012,0.6715486801956775,0.6988271187715792,0.6988271187715792,0.6309573444801932,0,0,0,0.7463018954975199,0.7247796636776955,0,0,0,0,0,0,0,0,0,0,0.677610913400481,0.7463018954975199,0,0,0,0,0,0,0,0,0,0,0,0,0,0,0.6706583898414208,0,0,0,0,0,0,0,0,0,0,0,0,0,0,0,0.7772031408854596,0,0,0,0,0,0,0,0,0,0,0,0,0,0,0,0,0,0,0,0,0,0,0,0,0,0,0,0,0,0,0,0,0.6933612743506347,0,0,0,0,0,0,0,0,0,0,0,0,0,0,0,0,0.7262114280571625,0,0,0,0,0,0,0.6706583898414208,0,0,0,0,0,0,0,0,0,0.7937005259840998,0,0,0,0,0,0,0,0,0,0,0,0,0,0,0,0,0,0,0,0,0,0,0,0,0,0,0,0,0,0,0.8444943144689757,0,0,0,0,0,0,0,0,0,0,0,0,0,0,0,0,0,0,0,0,0,0,0,0,0,0,0,0,0,0,0,0,0,0,0,0,0,0,0,0,0,0,0,0.7071067811865476,0,0,0,0,0,0,0,0,0,0,0,0,0,0,0,0,0,0,0,0,0,0.7262114280571625,0,0,0,0,0,0,0,0,0,0,0,0,0,0,0,0,0,0,0,0,0,0,0,0,0,0,0,0,0,0.9057236642639067,0.7573065421245532,0,0,0,0,0,0,0,0,0,0,0,0,0,0,0,0,0,0,0,0,0,0.7219680097109132,0,0,0,0,0,0,0,0,0,0,0,0,0,0,0,0,0,0,0,0,0,0,0,0,0,0,0,0,0,0,0,18
MODEL8102792069,0.6729500963161781,0,0,0,0.7598356856515925,0,0,0,0,0,0,0,0,0,0,0,0,0,0,0,0,0,0,0.8572439828530728,0,0,0,0,0,0,0,0,0,0,0,0,0,0,0,0,0,0,0,0,0,0,0,0,0,0,0,0,0,0,0,0,0,0,0,0,0,0,0,0,0,0,0,0,0,0,0,0,0,0,0,0,0,0,0,0,0,0,0,0,0,0,0,0,0,0,0,0,0,0,0,0,0,0,0,0,0,0,0,0,0,0,0,0,0,0,0,0,0,0,0,0,0,0,0,0,0,0,0,0,0,0,0,0,0,0,0,0,0,0,0,0,0,0,0,0,0,1,0,0,0,0,0,0,0,0,0,0,0,0,0,0,0,0,0,0,0,0,0,0,0,0,0,0,0,0,0,0,0,0,0,0,0,0,0,0,0,0,0,0,0,0,0,0,0,0,0,0,0,0,0,0,0,0,0,0,0,0,0,0,0,0,0,0,0,0,0,0,0,0,0,0,0,0,0,0,0,0,0,0,0,0,0,0,0,0,0,0,0,0,0,0,0,0,0,0,0,0,0,0,0,0,0,0,0,0,0,0,0,0,0,0,0,0,0,0,0,0,0,0,0,0,0,0,0,0,0,0,0,0,0,0,0,0,0,0,0,0,0,0,0,0,0,0,0,0,0,0,0,0,0,0,0,0,0,0,12
MODEL1302010048,0.6933612743506347,0.820335356007638,0,0,0,0,0.820335356007638,0,0,0,0,1,0,0,0,0,0,0,0,0,0,0,0,0,0,0,0,0,0,0,0,0,0,0,0,0,0,0,0,0,0,0,0,0,0,0,0,0,0,0,0,0,0,0,0,0,0,0,0,0,0,0,0,0,0,0,0,0,0,0,0,0,0,0,0,0,0,0,0,0,0,0,0,0,0,0,0,0,0,0,0,0,0,0,0,0,0,0,0,0,0,0,0,0,0,0,0,0,0,0,0,0,0,0,0,0,0,0,0,0,0,0,0,0,0,0,0,0,0,0,0,0,0,0,0,0,0,0,0,0,0,0,0,0,0,0,0,0,0,0,0,0,0,0,0,0,0,0,0,0,0,0,0,0,0,0,0,0,0,0,0,0,0,0,0,0,0,0,0,0,0,0,0,0,0,0,0,0,0,0,0,0,0,0,0,0,0,0,0,0,0,0,0,0,0,0,0,0,0,0,0,0,0,0,0,0,0,0,0,0,0,0,0,0,0,0,0,0,0,0,0,0,0,0,0,0,0,0,0,0,0,0,0,0,0,0,0,0,0,0,0,0,0,0,0,0,0,0,0,0,0,0,0,0,0,0,0,0,0,0,0,0,0,0,0,0,0,0,0,0,0,0,0,0,0,0,0,0,0,0,0,0,0,0,0,0,0,0,0,0,3
MODEL0912887467,0.6715486801956775,0.6988271187715792,0.6988271187715792,0.6309573444801932,0,0,0,0.7463018954975199,0.7247796636776955,0,0,0,0,0,0,0,0,0,0,0.677610913400481,0.7463018954975199,0,0,0,0,0,0,0,0,0,0,0,0,0,0,0.6706583898414208,0,0,0,0,0,0,0,0,0,0,0,0,0,0,0,0.7772031408854596,0,0,0,0,0,0,0,0,0,0,0,0,0,0,0,0,0,0,0,0,0,0,0,0,0,0,0,0,0,0,0,0,0.6933612743506347,0,0,0,0,0,0,0,0,0,0,0,0,0,0,0,0,0.7262114280571625,0,0,0,0,0,0,0.6706583898414208,0,0,0,0,0,0,0,0,0,0.7937005259840998,0,0,0,0,0,0,0,0,0,0,0,0,0,0,0,0,0,0,0,0,0,0,0,0,0,0,0,0,0,0,0.8444943144689757,0,0,0,0,0,0,0,0,0,0,0,0,0,0,0,0,0,0,0,0,0,0,0,0,0,0,0,0,0,0,0,0,0,0,0,0,0,0,0,0,0,0,0,0.7071067811865476,0,0,0,0,0,0,0,0,0,0,0,0,0,0,0,0,0,0,0,0,0,0.7262114280571625,0,0,0,0,0,0,0,0,0,0,0,0,0,0,0,0,0,0,0,0,0,0,0,0,0,0,0,0,0,0.9057236642639067,0.7573065421245532,0,0,0,0,0,0,0,0,0,0,0,0,0,0,0,0,0,0,0,0,0,0.7219680097109132,0,0,0,0,0,0,0,0,0,0,0,0,0,0,0,0,0,0,0,0,0,0,0,0,0,0,0,0,0,0,0,18
MODEL8177704759,0.668740304976422,0,0,0,0,0,0.7348672461377994,0,0,0,0.757858283255199,0,0,0,0.757858283255199,0.6729500963161781,0,0,0,0,0,0,0,0,0,0,0,0,0,0,0.8027415617602307,0,0,0.8027415617602307,0,0,0,0,0,0,0,0.8189373540396242,0,0,0,0,0,0,0,0,0,0,0,0,0,0,0,0,0,0,0,0,0,0.7598356856515925,0,0,0,0,0,0,0,0,0,0,0,0,0,0,0,0,0,0.8189373540396242,0,0,0,0,0,0,0,0,0,0,0,0,0,0,0,0,0,0,0,0,0,0,0,0,0,0,0,0,0,0,0,0,0,0,0,0,0,0,0,0,0,0,0,0,0,0,0,0,0,0,0,0,0,0,0,0,0,0,0,0,0,0,0,0,0,0,0,0,0,0,0,0,0,0,0,0,0,0,0.8815912549960212,0,0,0,0,0,0,0,0,0,0,0,0,0,0,0,0,0,0,0,0,0,0,0,0,0,0,0,0,0,0,0,0,0,0,0,0,0,0,0,0,0,0,0,0,0,0,0,0,0,0,0,0,0,0,0,0,0,0,0,0,0,0,0,0,0,0,0,0,0,0,0,0,0,0,0,0,0,0,0,0,0,0,0,0,0,0,0,0,0,0.8908987181403393,0,0,0,0,0,0,0,0,0,0,0,0,0,0,0,0,0,0,0,0,0,0,0,0,0,0,0,0,0,0,0,0,0,0,0,0,0,0,0,0,0,0,0,0,0,0,0,0,0,1
MODEL4883413839,0.6715486801956775,0.7247796636776955,0.677610913400481,0.6988271187715792,0.6988271187715792,0.7463018954975199,0,0.7463018954975199,0.7247796636776955,0.7463018954975199,0,0,0,0.7772031408854596,0,0,0,0,0,0,0,0,0,0,0,0,0,0,0,0,0,0,0,0,0,0,0,0,0,0,0,0,0,0,0,0.8326831776556043,0,0,0,0,0,0,0,0,0,0,0,0,0,0,0,0,0,0,0,0,0,0,0,0,0,0,0,0,0,0,0,0,0,0,0,0,0,0,0,0,0,0,0,0,0,0,0,0,0,0,0,0,0,0,0,0,0,0,0,0,0,0,0,0,0,0,0,0,0,0,0,0,0,0,0,0,0,0,0,0,0,0,0,0,0,0,0,0,0,0,0,0,0,0,0,0,0,0,0,0,0,0,0,0,0,0,0,0,0,0,0,0,0,0,0,0,0,0,0,0,0,0,0,0,0,0,0,0,0,0,0,0,0,0,0,0,0,0,0,0,0,0,0,0,0,0,0,0,0,0,0,0,0,0,0,0,0,0,0,0,0,0,0,0,0,0,0,0,0,0,0,0,0,0,0,0,0,0,0,0,0,0,0,0,0,0,0,0,0,0,0,0,0,0,0,0,0,0,0,0,0,0,0,0,0,0,0,0,0,0,0,0,0,0,0,0,0,0,0,0,0,0,0,0,0,0,0,0,0,0,0,0,0,0,0,0,0,0,0,0,0,0,0,0,0,0,0,0,0,0,0,0,0,0,4
MODEL1310110046,0.6933612743506347,0.820335356007638,0,0,0,0,0.820335356007638,0,0,0,0,1,0,0,0,0,0,0,0,0,0,0,0,0,0,0,0,0,0,0,0,0,0,0,0,0,0,0,0,0,0,0,0,0,0,0,0,0,0,0,0,0,0,0,0,0,0,0,0,0,0,0,0,0,0,0,0,0,0,0,0,0,0,0,0,0,0,0,0,0,0,0,0,0,0,0,0,0,0,0,0,0,0,0,0,0,0,0,0,0,0,0,0,0,0,0,0,0,0,0,0,0,0,0,0,0,0,0,0,0,0,0,0,0,0,0,0,0,0,0,0,0,0,0,0,0,0,0,0,0,0,0,0,0,0,0,0,0,0,0,0,0,0,0,0,0,0,0,0,0,0,0,0,0,0,0,0,0,0,0,0,0,0,0,0,0,0,0,0,0,0,0,0,0,0,0,0,0,0,0,0,0,0,0,0,0,0,0,0,0,0,0,0,0,0,0,0,0,0,0,0,0,0,0,0,0,0,0,0,0,0,0,0,0,0,0,0,0,0,0,0,0,0,0,0,0,0,0,0,0,0,0,0,0,0,0,0,0,0,0,0,0,0,0,0,0,0,0,0,0,0,0,0,0,0,0,0,0,0,0,0,0,0,0,0,0,0,0,0,0,0,0,0,0,0,0,0,0,0,0,0,0,0,0,0,0,0,0,0,0,3
MODEL1201230000,0.668740304976422,0.6993157867655625,0,0,0,0,0.7348672461377994,0,0,0,0.757858283255199,0.757858283255199,0,0,0.757858283255199,0,0,0,0.6597539553864471,0,0,0,0,0,0,0.7020140609716441,0,0,0,0,0.677610913400481,0,0,0,0,0,0,0,0,0,0,0,0,0,0,0,0,0.7020140609716441,0,0,0,0,0,0.7219680097109132,0.8079330720145728,0.76472449133173,0,0,0.7020140609716441,0,0.7418363755904023,0.7020140609716441,0,0,0.7020140609716441,0.7020140609716441,0,0,0,0,0,0,0,0,0,0,0,0,0,0,0,0.8189373540396242,0.7020140609716441,0,0,0,0,0,0,0,0,0,0,0,0,0,0,0,0,0,0,0,0,0,0,0,0,0,0,0,0.7806675962932174,0,0,0,0,0,0,0.757858283255199,0,0,0,0,0,0,0,0,0,0,0,0,0,0,0,0,0,0.8189373540396242,0.8547513999071522,0,0,0,0,0,0,0,0,0,0,0.8189373540396242,0,0,0,0,0,0,0,0,0,0,0,0,0,0,0,0,0,0,0,0,0.7219680097109132,0,0,0,0,0,0,0,0,0,0,0,0,0,0,0,0,0,0,0,0,0,0,0,0,0,0,0,0,0,0,0,0,0,0,0,0,0,0,0,0.7219680097109132,0,0,0,0,0,0,0,0,0,0,0,0,0,0,0,0,0,0,0,0,0,0,0,0,0.8027415617602307,0.7020140609716441,0.7418363755904023,0,0,0,0,0,0,0,0,0,0,0,0,0,0,0,0,0,0,0,0,0,0,0,0,0,0,0,0.76472449133173,0.8079330720145728,0,0,0,0,0,0,0,0,0,0,0,0,0,0,0,0,0,0,0,0,0,0,0,0,0,0,0,0,0,0,0,0,0,0,0.7806675962932174,1
MODEL6615351360,0.6715486801956775,0,0.6988271187715792,0.7247796636776955,0,0,0.7247796636776955,0,0,0,0.7463018954975199,0,0,0,0,0,0,0,0,0,0,0,0,0,0,0,0.7937005259840998,0,0,0,0,0,0,0,0,0,0,0,0,0,0.7772031408854596,0,0,0,0,0,0,0,0,0,0,0,0,0,0,0,0,0,0,0,0,0,0,0,0,0,0,0,0,0.8326831776556043,0,0,0,0,0,0,0,0,0,0,0,0,0,0,0,0,0,0,0,0,0,0,0,0,0,0,0,0,0,0,0,0,0,0,0,0,0,0,0,0,0,0,0,0,0,0,0.8444943144689757,0,0,0,0,0,0,0,0,0,0,0,0,0,0,0,0,0,0,0,0,0,0,0,0,0,0.8988509731955419,0,0,0,0,0,0,0,0,0,0,0,0,0,0,0,0,0,0,0,0,0,0,0,0,0,0,0,0,0,0,0,0,0,0,0,0,0,0,0,0,0,0,0,0,0,0,0,0,0,0,0,0,0,0,0,0,0,0,0,0,0,0,0,0,0,0,0,0,0,0,0,0,0,0,0,0,0,0,0,0,0,0,0,0,0,0,0,0,0,0,0,0,0,0,0,0,0,0,0,0,0,0,0,0,0,0,0,0,0,0,0,0,0,0,0,0,0,0,0,0,0,0,0,0,0,0,0,0,0,0,0,0,0,0,0,0,0,0,0,0,0,0,0,0,0,0,0,0,0,0,0,0,0,0,0,0,0,9
MODEL4770526315,0.677610913400481,0.7247796636776955,0.7020140609716441,0.7348672461377994,0,0.757858283255199,0.7348672461377994,0,0,0,0.7247796636776955,0.7772031408854596,0,0,0.7247796636776955,0,0,0,0.7020140609716441,0,0,0,0,0,0,0.7463018954975199,0,0.7219680097109132,0.7418363755904023,0.7806675962932174,0.7247796636776955,0,0,0.7020140609716441,0,0,0,0,0,0,0.8027415617602307,0.7418363755904023,0,0,0,0,0,0.7463018954975199,0.7418363755904023,0,0,0,0,0.7020140609716441,0.7806675962932174,0.7418363755904023,0,0,0.7463018954975199,0,0.7937005259840998,0.7463018954975199,0,0,0.7463018954975199,0.7463018954975199,0.8189373540396242,0,0,0,0.76472449133173,0,0,0,0,0,0,0,0.7772031408854596,0,0.820335356007638,0.7772031408854596,0.7463018954975199,0,0,0,0,0,0,0.7463018954975199,0,0.8079330720145728,0,0,0,0.7806675962932174,0,0,0,0,0.8312378961427878,0,0,0,0,0,0,0,0,0,0.8444943144689757,0,0,0,0,0,0,0.757858283255199,0,0,0,0,0,0,0,0,0,0,0,0,0,0,0.7806675962932174,0,0.8716855428717357,0.7772031408854596,0.820335356007638,0,0,0,0.8326831776556043,0,0,0,0,0,0,0.8189373540396242,0,0,0,0,0,0,0,0,0,0,0,0,0,0,0.7806675962932174,0.7806675962932174,0.7806675962932174,0,0,0,0.7418363755904023,0,0,0,0,0,0,0,0,0,0,0.7590745364185408,0,0,0,0,0,0,0,0,0,0,0,0,0,0,0,0,0,0,0,0,0,0,0,0,0,0,0,0.8547513999071522,0.7230200263994838,0,0,0,0,0,0,0,0,0,0,0,0,0,0,0,0,0,0,0,0,0,0,0,0,0.8027415617602307,0.7418363755904023,0.7937005259840998,0,0,0,0,0,0,0,0,0,0,0,0,0,0,0,0,0.8444943144689757,0.7937005259840998,0,0.7937005259840998,0,0,0,0,0,0,0.9117224885582168,0.76472449133173,0.8079330720145728,0,0,0,0,0,0,0,0,0,0,0,0,0,0,0,0,0,0,0.9057236642639067,0,0,0,0,0,0,0,0,0,0,0,0,0,0,0,0.8444943144689757,1
MODEL1004060003,0.6851754923600618,0.7348672461377994,0.6933612743506347,0.7071067811865476,0.7598356856515925,0.757858283255199,0,0.757858283255199,0.7348672461377994,0.757858283255199,0,0,0,0.8027415617602307,0,0.6715486801956775,0,0,0,0,0,0,0,0.7348672461377994,0,0,0,0,0,0,0,0.8027415617602307,0,0,0,0,0.8815912549960212,0,0,0,0,0,0,0,0,0.7945974047018523,0,0,0,0,0,0,0,0,0,0,0.8572439828530728,0,0,0,0,0,0,0.7247796636776955,0,0,0,0,0,0,0,0,0,0.7772031408854596,0,0,0,0,0,0,0,0,0,0,0,0,0,0,0,0,0,0,0,0,0,0,0,0,0,0,0,0,0,0,0,0,0,0,0,0,0,0,0,0,0,0,0,0,0,0,0,0,0,0,0,0,0.8312378961427878,0,0,0,0,0,0,0,0,0,0,0,0,0,0,0,0,0,0,0,0,0,0,0,0,0,0,0,0,0,0,0,0,0,0,0,0,0,0,0,0,0,0,0,0,0,0,0,0,0,0,0,0,0,0,0,0,0,0,0.8716855428717357,0.8326831776556043,0,0,0,0,0,0,0,0,0,0,0,0,0,0,0,0,0,0,0,0,0,0,0,0,0,0,0,0,0,0,0,0,0,0,0,0,0,0,0,0,0,0,0,0,0,0,0,0,0,0,0,0,0,0,0,0,0.8815912549960212,0,0,0,0,0,0,0,0,0,0,0,0,0,0,0,0,0,0,0,0,0,0,0,0,0,0,0,0,0,0,0,0,0,0,0,0,0,0,0,0,0,0,0,0,0,0,0,0,0,0,0,0,0,0,0,0,4
MODEL0928773489,0.6715486801956775,0.7247796636776955,0.6988271187715792,0.7247796636776955,0.7247796636776955,0.7772031408854596,0,0.7463018954975199,0.7247796636776955,0.7463018954975199,0,0,0,0.7772031408854596,0,0,0,0,0,0,0.7463018954975199,0,0,0,0,0,0,0.677610913400481,0.7219680097109132,0.7418363755904023,0,0,0,0,0.7772031408854596,0,0.8326831776556043,0,0,0,0,0,0.7937005259840998,0.7772031408854596,0,0,0,0,0,0,0,0.7219680097109132,0,0,0,0,0,0,0,0,0,0,0,0,0,0,0,0,0.8326831776556043,0,0.7219680097109132,0,0,0,0,0,0,0,0,0,0,0,0,0,0,0.7937005259840998,0,0.7590745364185408,0,0,0,0.76472449133173,0,0,0,0,0,0,0,0,0,0,0,0,0,0.7806675962932174,0.7772031408854596,0,0,0,0,0,0,0,0.7806675962932174,0,0,0,0,0,0,0,0,0,0,0,0,0,0,0,0.8079330720145728,0.76472449133173,0,0,0,0,0,0,0,0,0,0,0,0,0,0,0,0,0,0,0,0.741284495989096,0,0,0,0,0,0,0,0,0,0.8988509731955419,0,0,0,0,0,0,0,0,0,0,0,0,0,0,0,0,0,0,0,0,0,0,0,0,0,0,0,0,0.7945974047018523,0.820335356007638,0.7741685699586097,0,0,0,0,0,0,0,0,0,0,0,0,0,0,0,0,0,0,0,0,0.8547513999071522,0,0,0,0,0.8444943144689757,0,0,0,0,0,0,0,0,0,0,0,0,0,0,0,0,0,0,0,0,0,0.7020140609716441,0,0,0,0,0,0,0,0,0,0,0,0,0,0,0,0,0,0,0,0,0,0,0,0,0,0,0,0,0,0,0,0.8326831776556043,0.8079330720145728,0,0,0,0,0,0,0,0,0,0,0,0,0,0,0,0,0,0,0,0,0,0,0,0,0,0,4
MODEL2021747594,0.668740304976422,0.6993157867655625,0,0,0,0,0.7348672461377994,0,0,0,0.757858283255199,0.757858283255199,0,0,0.757858283255199,0,0,0,0.6597539553864471,0,0,0,0,0,0,0.7020140609716441,0,0,0,0,0.677610913400481,0,0,0,0,0,0,0,0,0,0,0,0,0,0,0,0,0.7020140609716441,0,0,0,0,0,0.7219680097109132,0.8079330720145728,0.76472449133173,0,0,0.7020140609716441,0,0.7418363755904023,0.7020140609716441,0,0,0.7020140609716441,0.7020140609716441,0,0,0,0,0,0,0,0,0,0,0,0,0,0,0,0.8189373540396242,0.7020140609716441,0,0,0,0,0,0,0,0,0,0,0,0,0,0,0,0,0,0,0,0,0,0,0,0,0,0,0,0.7806675962932174,0,0,0,0,0,0,0.757858283255199,0,0,0,0,0,0,0,0,0,0,0,0,0,0,0,0,0,0.8189373540396242,0.8547513999071522,0,0,0,0,0,0,0,0,0,0,0.8189373540396242,0,0,0,0,0,0,0,0,0,0,0,0,0,0,0,0,0,0,0,0,0.7219680097109132,0,0,0,0,0,0,0,0,0,0,0,0,0,0,0,0,0,0,0,0,0,0,0,0,0,0,0,0,0,0,0,0,0,0,0,0,0,0,0,0.7219680097109132,0,0,0,0,0,0,0,0,0,0,0,0,0,0,0,0,0,0,0,0,0,0,0,0,0.8027415617602307,0.7020140609716441,0.7418363755904023,0,0,0,0,0,0,0,0,0,0,0,0,0,0,0,0,0,0,0,0,0,0,0,0,0,0,0,0.76472449133173,0.8079330720145728,0,0,0,0,0,0,0,0,0,0,0,0,0,0,0,0,0,0,0,0,0,0,0,0,0,0,0,0,0,0,0,0,0,0,0.7806675962932174,1
MODEL0911110000,0.6729500963161781,0,0.6389431042462724,0,0,0,0,0,0,0,0,0,0,0,0,0,0,0,0,0.7071067811865476,0.6993157867655625,0,0,0,0,0,0,0,0,0,0,0,0,0,0,0,0,0,0,0,0,0,0,0,0,0,0,0,0,0,0,0,0,0,0,0,0,0,0,0,0,0,0,0,0,0,0,0,0,0,0,0,0,0,0,0,0,0,0,0,0,0,0,0,0,0,0,0,0,0,0,0,0,0,0,0,0,0,0,0.757858283255199,0,0,0,0,0,0,0,0,0,0,0,0,0,0,0,0,0,0,0,0,0,0,0,0,0,0,0,0,0,0,0,0,0,0,0,0,0,0,0,0,0,0,0,0,0,0,0,0,0,0,0,0,0,0,0,0,0,0,0,0,0,0,0,0,0,0,0,0,0,0,0,0,0.8572439828530728,0.7598356856515925,0,0,0,0,0,0,0,0,0,0,0,0,0,0,0,0,0,0,0,0,0,0,0,0,0,0,0,0,0,0,0,0,0,0,0,0,0,0,0,0,0,0,0,0,0,0,0,0,0,0,0,0,0,0,0,0,0,0,0,0,0,0,0,0,0,0,0,0,0,0,0,0,0,0,0,0,0,0,0,0,0,0,0,0,0,0,0,0,0,0,0,0,0,0,0,0,0,0,0,0,0,0,0,0,0,0,0,0,0,0,0,0,0,0,0,0,0,0,0,0,0,0,0,0,0.7833810369372723,0,15
MODEL2977476330,0.677610913400481,0.7219680097109132,0.7020140609716441,0.7219680097109132,0.7219680097109132,0.7418363755904023,0,0.7418363755904023,0.7219680097109132,0.7418363755904023,0,0,0,0.76472449133173,0,0,0,0,0,0,0,0,0,0,0,0,0,0,0,0,0,0,0,0,0.76472449133173,0,0.8079330720145728,0,0,0,0,0,0,0,0,0,0,0,0,0,0,0,0,0,0,0,0,0,0,0,0,0,0,0,0,0,0,0,0,0,0,0,0,0,0,0,0,0,0,0,0,0,0,0,0,0,0,0,0,0,0,0,0,0,0,0,0,0,0,0,0,0,0,0,0,0,0,0,0,0.7219680097109132,0,0,0,0,0,0,0,0,0,0,0,0,0,0,0,0,0,0,0,0,0,0,0,0,0,0,0,0,0,0,0,0,0,0.76472449133173,0,0,0,0,0,0,0,0,0,0,0,0,0,0,0,0,0,0,0,0,0,0,0,0,0,0,0,0,0,0,0,0,0,0,0,0,0,0,0,0,0,0,0,0,0,0,0,0,0,0,0,0,0,0,0,0,0,0,0,0,0,0,0,0,0,0,0,0,0,0,0,0,0,0,0.8547513999071522,0,0,0,0,0,0,0,0,0,0.8079330720145728,0.76472449133173,0,0,0,0,0,0,0,0,0,0,0,0,0,0,0,0,0,0,0,0,0,0,0,0,0,0,0,0,0,0,0,0,0,0,0,0,0,0,0,0,0,0,0,0,0,0,0,0,0,0,0,0,0,0,0,0,0,0,0,0,0,0,0,0,0,0,0,0,0,0,4
